Chapter 3 Genomic libraries and sequence capture | GOING
…
Figure 3.7: Samples estimated volumes.

3.1.2.5 DNA quality

We assessed DNA fragment quality and size through electrophoresis and reorganized columns inside plates by quality.

## # A tibble: 192 x 7
## # Groups:   ID [192]
##    ID    source_Plate source_Position volumeplus5 concentration dest_Plate
##    <chr> <chr>        <chr>                 <dbl>         <dbl> <chr>     
##  1 MHDN… PCR1         B1                       49          1.45 PCR2      
##  2 P15_… PCR1         D1                       50          3.01 PCR2      
##  3 P3_2… PCR1         E1                       50          3.10 PCR2      
##  4 MHDN… PCR1         F1                       49          3.17 PCR2      
##  5 P5_4… PCR1         G1                       50          3.36 PCR2      
##  6 P13_… PCR1         H1                       50          3.45 PCR2      
##  7 P13_… PCR1         F2                       50          3.93 PCR2      
##  8 P7_3… PCR1         G2                       50          4.77 PCR2      
##  9 EE16… PCR1         A3                       49          5.44 PCR2      
## 10 MH31… PCR1         B3                       49          5.48 PCR2      
## # … with 182 more rows, and 1 more variable: dest_Position <chr>

## # A tibble: 192 x 7
## # Groups:   ID [192]
##    ID    source_Plate source_Position volumeplus5 concentration dest_Plate
##    <chr> <chr>        <chr>                 <dbl>         <dbl> <chr>     
##  1 P15_… PCR1         E3                     49            22.7 PCR2      
##  2 P1_4… PCR1         H3                     49            23.2 PCR2      
##  3 OH29… PCR1         D5                     44.1          24.2 PCR2      
##  4 P4_2… PCR1         F5                     49            24.2 PCR2      
##  5 P13_… PCR1         G5                     49            24.3 PCR2      
##  6 P7_2… PCR1         C6                     49            24.8 PCR2      
##  7 P4_1… PCR1         E6                     49            25.1 PCR2      
##  8 P16_… PCR1         A7                     49            25.5 PCR2      
##  9 P10_… PCR1         D7                     49            25.6 PCR2      
## 10 P10_… PCR1         F7                     49            25.8 PCR2      
## # … with 182 more rows, and 1 more variable: dest_Position <chr>

## # A tibble: 48 x 7
## # Groups:   ID [48]
##    ID    source_Plate source_Position volumeplus5 concentration dest_Plate
##    <chr> <chr>        <chr>                 <dbl>         <dbl> <chr>     
##  1 P3_2… PCR1         A1                     49            56.0 PCR2      
##  2 P7_2… PCR1         B1                     49            57.7 PCR2      
##  3 P13_… PCR1         F1                     49            60.5 PCR2      
##  4 P6_4… PCR1         H1                     49            63.7 PCR2      
##  5 P7_3… PCR1         A2                     49            63.8 PCR2      
##  6 P15_… PCR1         B2                     49            64.5 PCR2      
##  7 P7_3… PCR1         C2                     49            69.6 PCR2      
##  8 P13_… PCR1         D2                     49            70.2 PCR2      
##  9 P7_3… PCR1         H2                     49            73.2 PCR2      
## 10 P15_… PCR1         C3                     47.7          75.1 PCR2      
## # … with 38 more rows, and 1 more variable: dest_Position <chr>
…
Figure 3.11: Volume to resupspend dry samples.

## # A tibble: 192 x 6
##    source_Plate source_Position sample_volume new_volume dest_Plate
##    <chr>        <chr>                   <dbl>      <dbl> <chr>     
##  1 PCR1         A1                          0       10   PCR2      
##  2 PCR1         B1                          0       14   PCR2      
##  3 PCR1         C1                          0       14.4 PCR2      
##  4 PCR1         D1                          0       10   PCR2      
##  5 PCR1         E1                          0       15.6 PCR2      
##  6 PCR1         F1                          0       16   PCR2      
##  7 PCR1         G1                          0       18.3 PCR2      
##  8 PCR1         H1                          0       22.2 PCR2      
##  9 PCR1         A2                          0       12   PCR2      
## 10 PCR1         B2                          0       12.1 PCR2      
## # … with 182 more rows, and 1 more variable: dest_Position <chr>
…
Figure 3.12: Sample volume (microL)

## # A tibble: 192 x 7
## # Groups:   ID [192]
##    ID    source_Plate source_Position sample_volume water_volume dest_Plate
##    <chr> <chr>        <chr>                   <dbl>        <dbl> <chr>     
##  1 P15_… PCR1         A1                        4.4          2.1 PCR2      
##  2 P1_4… PCR1         B1                        4.3          2.2 PCR2      
##  3 OH29… PCR1         C1                        4.1          2.4 PCR2      
##  4 P4_2… PCR1         D1                        4.1          2.4 PCR2      
##  5 P13_… PCR1         E1                        4.1          2.4 PCR2      
##  6 P7_2… PCR1         F1                        4            2.5 PCR2      
##  7 P4_1… PCR1         G1                        4            2.5 PCR2      
##  8 P16_… PCR1         H1                        3.9          2.6 PCR2      
##  9 P10_… PCR1         A2                        3.9          2.6 PCR2      
## 10 P10_… PCR1         B2                        3.9          2.6 PCR2      
## # … with 182 more rows, and 1 more variable: dest_Position <chr>

## # A tibble: 48 x 7
## # Groups:   ID [48]
##    ID    source_Plate source_Position sample_volume water_volume dest_Plate
##    <chr> <chr>        <chr>                   <dbl>        <dbl> <chr>     
##  1 P3_2… PCR1         A1                        3.6          9.4 PCR2      
##  2 P7_2… PCR1         B1                        3.5          9.5 PCR2      
##  3 P13_… PCR1         C1                        3.3          9.7 PCR2      
##  4 P6_4… PCR1         D1                        3.1          9.9 PCR2      
##  5 P7_3… PCR1         E1                        3.1          9.9 PCR2      
##  6 P15_… PCR1         F1                        3.1          9.9 PCR2      
##  7 P7_3… PCR1         G1                        2.9         10.1 PCR2      
##  8 P13_… PCR1         H1                        2.8         10.2 PCR2      
##  9 P7_3… PCR1         A2                        2.7         10.3 PCR2      
## 10 P15_… PCR1         B2                        2.7         10.3 PCR2      
## # … with 38 more rows, and 1 more variable: dest_Position <chr>
…
